Soph_lyrics
…
Clean and Format the Final Results

# Unnest the top tracks to a readable format (EXCLUDING genres, image_url, and spotify_link)
top_artists_german_tracks <- top_artists_german %>%
  select(artist_name = name, artist_popularity = popularity, 
         followers, top_tracks) %>%
  unnest(cols = top_tracks)

# we need to delete a spanish Artist manually, because he always appears in the german list
top_artists_german_tracks <- top_artists_german_tracks %>%
  filter(!artist_name %in% c("Morad", "Rvfv"))

print(top_artists_german_tracks)

# A tibble: 30 × 5
   artist_name artist_popularity followers track_name         track_popularity
   <chr>                   <dbl>     <dbl> <chr>                         <dbl>
 1 Bonez MC                   76   2323190 Toyota (2016)                    68
 2 Bonez MC                   76   2323190 Ohne mein Team                   67
 3 Bonez MC                   76   2323190 Blaues Licht                     65
 4 Bonez MC                   76   2323190 Extasy                           61
 5 Bonez MC                   76   2323190 Palmen aus Plastik               65
 6 Luciano                    75   2394883 Butcher                          71
 7 Luciano                    75   2394883 PLAYBOYBUNNIES                   71
 8 Luciano                    75   2394883 Gesegnet                         70
 9 Luciano                    75   2394883 Cold as Ice                      69
10 Luciano                    75   2394883 Starboy                          68
# ℹ 20 more rows
…
Found best match Genius URL: https://genius.com/Highest-to-lowest-highest-to-lowest-2pac-lyrics

No suitable match found for: Apache 207 - Gesegnet

Found best match Genius URL: https://genius.com/Apathy-block-island-sound-lyrics

Found best match Genius URL: https://genius.com/Apache-207-loser-lyrics

Found best match Genius URL: https://genius.com/Apache-207-capri-sonne-lyrics

# View the results
print(top_artists_german_tracks %>% select(artist_name, track_name, genius_url, genius_id))

# A tibble: 27 × 4
   artist_name track_name         genius_url                           genius_id
   <chr>       <chr>              <chr>                                    <int>
 1 Bonez MC    Toyota (2016)      https://genius.com/Oso-oso-freestyl…   4157141
 2 Bonez MC    Ohne mein Team     https://genius.com/Bonez-mc-wenn-du…  10120798
 3 Bonez MC    Blaues Licht       https://genius.com/Bonez-mc-and-raf…   8174131
 4 Bonez MC    Extasy             https://genius.com/Bonez-mc-raf-cam…   3920005
 5 Bonez MC    Palmen aus Plastik https://genius.com/Bonez-mc-and-raf…   2853616
 6 Luciano     Butcher            https://genius.com/Sole-deu-phonix-…   2418581
 7 Luciano     Gesegnet           https://genius.com/Mucco-on-ma-way-…  10891103
 8 Luciano     Cold as Ice        https://genius.com/Bastardo-locale-…   2972915
 9 Luciano     Starboy            https://genius.com/Mucco-on-ma-way-…  10891103
10 RAF Camora  Ohne mein Team     https://genius.com/Raf-camora-zenit…   4813438
# ℹ 17 more rows
…
top_artists_german_tracks <- top_artists_german_tracks %>%
  mutate(lyrics  = map_chr(genius_url , get_genius_lyrics ))

View and Save Final Dataset

# View final dataset with Genius IDs, URLs, and Lyrics
print(top_artists_german_tracks  %>% select(artist_name, track_name , genius_url , genius_id , lyrics ))

# A tibble: 27 × 5
   artist_name track_name         genius_url                    genius_id lyrics
   <chr>       <chr>              <chr>                             <int> <chr> 
 1 Bonez MC    Toyota (2016)      https://genius.com/Oso-oso-f…   4157141 "MY S…
 2 Bonez MC    Ohne mein Team     https://genius.com/Bonez-mc-…  10120798 "[Son…
 3 Bonez MC    Blaues Licht       https://genius.com/Bonez-mc-…   8174131 "[Son…
 4 Bonez MC    Extasy             https://genius.com/Bonez-mc-…   3920005 "[Son…
 5 Bonez MC    Palmen aus Plastik https://genius.com/Bonez-mc-…   2853616 "[Son…
 6 Luciano     Butcher            https://genius.com/Sole-deu-…   2418581 "[Son…
 7 Luciano     Gesegnet           https://genius.com/Mucco-on-…  10891103 "[Son…
 8 Luciano     Cold as Ice        https://genius.com/Bastardo-…   2972915 "RIT.…
 9 Luciano     Starboy            https://genius.com/Mucco-on-…  10891103 "[Son…
10 RAF Camora  Ohne mein Team     https://genius.com/Raf-camor…   4813438 "[Son…
# ℹ 17 more rows
…
word_correlation

# A tibble: 36,705,422 × 3
   item1 item2 correlation
   <chr> <chr>       <dbl>
 1 be    have            1
 2 when  have            1
 3 still have            1
 4 here  have            1
 5 are   have            1
 6 have  be              1
 7 when  be              1
 8 still be              1
 9 here  be              1
10 are   be              1
# ℹ 36,705,412 more rows

# Filter für "Mann"
mann_correlation <- word_correlation %>%
  filter(item1 == "männer" | item2 == "mann")

print(mann_correlation)

# A tibble: 12,115 × 3
   item1  item2         correlation
   <chr>  <chr>               <dbl>
 1 männer phönix                  1
 2 männer mischt                  1
 3 männer john                    1
 4 männer player                  1
 5 männer longpaper               1
 6 männer purple                  1
 7 männer hazeich                 1
 8 männer rockstarleben           1
 9 männer gehen                   1
10 männer nenn                    1
# ℹ 12,105 more rows

# Filter für "Frau"
frau_correlation <- word_correlation %>%
  filter(item1 == "frauen"| item2 == "frauen")

print(frau_correlation)

# A tibble: 12,116 × 3
   item1  item2         correlation
   <chr>  <chr>               <dbl>
 1 frauen phönix                  1
 2 frauen mischt                  1
 3 frauen john                    1
 4 frauen player                  1
 5 frauen longpaper               1
 6 frauen purple                  1
 7 frauen hazeich                 1
 8 frauen rockstarleben           1
 9 frauen gehen                   1
10 frauen nenn                    1
# ℹ 12,106 more rows
…
